{
    "parts": {
        "blushl": {
            "enable": true,
            "frameCount": 15,
            "height": 30,
            "position": {
                "positionX": [
                    {
                        "index": 46,
                        "x": -70.877,
                        "y": 21.824
                    }
                ],
                "positionY": [
                ]
            },
            "positionRelationType": 1,
            "positionType": 1,
            "rotateCenter": [
                {
                    "index": 46,
                    "x": -70.877,
                    "y": 21.824
                }
            ],
            "scale": {
                "scaleX": {
                    "pointA": [
                        {
                            "index": 74,
                            "x": -144.210,
                            "y": -51.087
                        }
                    ],
                    "pointB": [
                        {
                            "index": 77,
                            "x": 0.701,
                            "y": -51.368
                        }
                    ]
                },
                "scaleY": {
                    "pointA": [
                    ],
                    "pointB": [
                    ]
                }
            },
            "triggerDelay": 0,
            "triggerLoop": 0,
            "triggerStop": false,
            "triggerType": 0,
            "width": 40,
            "zPosition": 3
        },
        "blushr": {
            "enable": true,
            "frameCount": 15,
            "height": 30,
            "position": {
                "positionX": [
                    {
                        "index": 46,
                        "x": 110.175,
                        "y": 21.824
                    }
                ],
                "positionY": [
                ]
            },
            "positionRelationType": 1,
            "positionType": 1,
            "rotateCenter": [
                {
                    "index": 46,
                    "x": 110.175,
                    "y": 21.824
                }
            ],
            "scale": {
                "scaleX": {
                    "pointA": [
                        {
                            "index": 74,
                            "x": 36.842,
                            "y": -51.087
                        }
                    ],
                    "pointB": [
                        {
                            "index": 77,
                            "x": 181.754,
                            "y": -51.368
                        }
                    ]
                },
                "scaleY": {
                    "pointA": [
                    ],
                    "pointB": [
                    ]
                }
            },
            "triggerDelay": 0,
            "triggerLoop": 0,
            "triggerStop": false,
            "triggerType": 0,
            "width": 40,
            "zPosition": 2
        },
        "glasses": {
            "enable": true,
            "frameCount": 30,
            "height": 180,
            "position": {
                "positionX": [
                    {
                        "index": 46,
                        "x": 181.952,
                        "y": 178.557
                    }
                ],
                "positionY": [
                ]
            },
            "positionRelationType": 1,
            "positionType": 1,
            "rotateCenter": [
                {
                    "index": 46,
                    "x": 181.952,
                    "y": 178.557
                }
            ],
            "scale": {
                "scaleX": {
                    "pointA": [
                        {
                            "index": 74,
                            "x": 90.976,
                            "y": 88.103
                        }
                    ],
                    "pointB": [
                        {
                            "index": 77,
                            "x": 270.752,
                            "y": 87.755
                        }
                    ]
                },
                "scaleY": {
                    "pointA": [
                    ],
                    "pointB": [
                    ]
                }
            },
            "triggerDelay": 0,
            "triggerLoop": 0,
            "triggerStop": false,
            "triggerType": 0,
            "width": 370,
            "zPosition": 4
        },
        "hand": {
            "enable": true,
            "frameCount": 30,
            "height": 460,
            "position": {
                "positionX": [
                    {
                        "index": 106,
                        "x": -29.142,
                        "y": -711.428
                    },
                    {
                        "index": 107,
                        "x": 612.857,
                        "y": -711.428
                    }
                ],
                "positionY": [
                ]
            },
            "positionRelationType": 0,
            "positionType": 0,
            "rotateCenter": [
                {
                    "x": 300,
                    "y": 230
                }
            ],
            "scale": {
                "scaleX": {
                    "pointA": [
                        {
                            "index": 106,
                            "x": -29.142,
                            "y": -711.428
                        }
                    ],
                    "pointB": [
                        {
                            "index": 107,
                            "x": 612.857,
                            "y": -711.428
                        }
                    ]
                },
                "scaleY": {
                    "pointA": [
                    ],
                    "pointB": [
                    ]
                }
            },
            "triggerDelay": 0,
            "triggerLoop": 0,
            "triggerStop": true,
            "triggerType": 0,
            "width": 600,
            "zPosition": 5
        },
        "scarf": {
            "enable": true,
            "frameCount": 15,
            "height": 150,
            "position": {
                "positionX": [
                    {
                        "index": 74,
                        "x": 151.715,
                        "y": 278.758
                    },
                    {
                        "index": 77,
                        "x": 357.152,
                        "y": 278.360
                    }
                ],
                "positionY": [
                ]
            },
            "positionRelationType": 1,
            "positionType": 1,
            "rotateCenter": [
                {
                    "index": 46,
                    "x": 255.677,
                    "y": 382.123
                }
            ],
            "scale": {
                "scaleX": {
                    "pointA": [
                        {
                            "index": 74,
                            "x": 151.715,
                            "y": 278.758
                        }
                    ],
                    "pointB": [
                        {
                            "index": 77,
                            "x": 357.152,
                            "y": 278.360
                        }
                    ]
                },
                "scaleY": {
                    "pointA": [
                    ],
                    "pointB": [
                    ]
                }
            },
            "triggerDelay": 0,
            "triggerLoop": 0,
            "triggerStop": false,
            "triggerType": 0,
            "width": 580,
            "zPosition": 1
        },
        "word": {
            "enable": true,
            "frameCount": 30,
            "height": 200,
            "position": {
                "positionX": [
                    {
                        "index": 74,
                        "x": 199.561,
                        "y": 450.175
                    },
                    {
                        "index": 77,
                        "x": 380.701,
                        "y": 449.824
                    }
                ],
                "positionY": [
                ]
            },
            "positionRelationType": 1,
            "positionType": 1,
            "rotateCenter": [
                {
                    "index": 46,
                    "x": 291.228,
                    "y": 541.315
                }
            ],
            "scale": {
                "scaleX": {
                    "pointA": [
                        {
                            "index": 74,
                            "x": 199.561,
                            "y": 450.175
                        }
                    ],
                    "pointB": [
                        {
                            "index": 77,
                            "x": 380.701,
                            "y": 449.824
                        }
                    ]
                },
                "scaleY": {
                    "pointA": [
                    ],
                    "pointB": [
                    ]
                }
            },
            "triggerDelay": 0,
            "triggerLoop": 0,
            "triggerStop": false,
            "triggerType": 0,
            "width": 600,
            "zPosition": 0
        }
    },
    "version": "1.1"
}
