{
    "parts": {
        "facel": {
            "enable": true,
            "frameCount": 1,
            "height": 40,
            "position": {
                "positionX": [
                    {
                        "index": 81,
                        "x": -24.076,
                        "y": 22
                    }
                ],
                "positionY": [
                ]
            },
            "positionRelationType": 1,
            "positionType": 1,
            "rotateCenter": [
                {
                    "index": 46,
                    "x": -60.000,
                    "y": 30.846
                }
            ],
            "scale": {
                "scaleX": {
                    "pointA": [
                        {
                            "index": 74,
                            "x": -140.384,
                            "y": -49.076
                        }
                    ],
                    "pointB": [
                        {
                            "index": 77,
                            "x": 18.461,
                            "y": -49.384
                        }
                    ]
                },
                "scaleY": {
                    "pointA": [
                    ],
                    "pointB": [
                    ]
                }
            },
            "triggerDelay": 0,
            "triggerLoop": 0,
            "triggerStop": false,
            "triggerType": 0,
            "width": 80,
            "zPosition": 2
        },
        "facer": {
            "enable": true,
            "frameCount": 1,
            "height": 40,
            "position": {
                "positionX": [
                    {
                        "index": 80,
                        "x": 104.705,
                        "y": 23.294
                    }
                ],
                "positionY": [
                ]
            },
            "positionRelationType": 1,
            "positionType": 1,
            "rotateCenter": [
                {
                    "index": 46,
                    "x": 141.960,
                    "y": 32.235
                }
            ],
            "scale": {
                "scaleX": {
                    "pointA": [
                        {
                            "index": 74,
                            "x": 60,
                            "y": -49.254
                        }
                    ],
                    "pointB": [
                        {
                            "index": 77,
                            "x": 221.960,
                            "y": -49.568
                        }
                    ]
                },
                "scaleY": {
                    "pointA": [
                    ],
                    "pointB": [
                    ]
                }
            },
            "triggerDelay": 0,
            "triggerLoop": 0,
            "triggerStop": false,
            "triggerType": 0,
            "width": 80,
            "zPosition": 1
        },
        "head": {
            "enable": true,
            "frameCount": 50,
            "height": 200,
            "position": {
                "positionX": [
                    {
                        "index": 74,
                        "x": 30.5,
                        "y": 459.200
                    },
                    {
                        "index": 77,
                        "x": 237,
                        "y": 458.799
                    }
                ],
                "positionY": [
                ]
            },
            "positionRelationType": 1,
            "positionType": 1,
            "rotateCenter": [
                {
                    "index": 46,
                    "x": 135,
                    "y": 563.099
                }
            ],
            "scale": {
                "scaleX": {
                    "pointA": [
                        {
                            "index": 74,
                            "x": 30.5,
                            "y": 459.200
                        }
                    ],
                    "pointB": [
                        {
                            "index": 77,
                            "x": 237,
                            "y": 458.799
                        }
                    ]
                },
                "scaleY": {
                    "pointA": [
                    ],
                    "pointB": [
                    ]
                }
            },
            "triggerDelay": 0,
            "triggerLoop": 0,
            "triggerStop": false,
            "triggerType": 0,
            "width": 300,
            "zPosition": 0
        }
    },
    "version": "1.1"
}
